...................
----------------------------------------------------------------------
Ran 19 tests in 0.830s

OK
Name             Stmts   Miss Branch BrPart  Cover   Missing
------------------------------------------------------------
Collatz.py          35      0     16      0   100%
TestCollatz.py      82      0      0      0   100%
------------------------------------------------------------
TOTAL              117      0     16      0   100%