1 10 20
100 200 125
201 210 89
900 1000 174
1 1 1
999999 999999 259
1000 500 179
10000 5000 262
99 99 26
200000 100000 383
300000 200000 443
400000 300000 441
500000 400000 449
500000 600000 470
352 352 20
700000 600000 509
700000 800000 504
5000 1 238
10000 15000 276
15000 20000 279
20000 40000 324
60000 40000 340
234 235 128
2398 2934 217
234 2861 209
29367 23058 308
3235 1358 217
1325 121367 354
777 777 34
1250 98735 351
3759 12058 268
1249 9124 262
1357 1357 53
60000 80000 351
80000 100000 333
120000 100000 354
140000 120000 344
160000 140000 383
180000 160000 370
200000 180000 365
200000 220000 386
220000 240000 443
200000 250000 443
250000 300000 407
300000 350000 441
350000 400000 436
400000 450000 449
450000 500000 444
500000 550000 470
550000 600000 434
600000 650000 509
650000 700000 442
700000 750000 504
750000 800000 468
800000 850000 525
850000 900000 445
900000 950000 507
950000 999999 458
200000 150000 383
150000 100000 375
100000 50000 351
50000 1 324
20 20 8
24124 12124 282
123 124 109
124 12512 268
1231 7195 262
76659 6582 340
65839 18757 340
36758 12975 324
174775 102457 383
12757 12857 201
812757 832175 450
21457 91258 351
8751 15889 276
81275 81285 183
82174 8128 351
157 815 171
73217 1377 340
8747 7155 252
71275 8175 340
8294 1285 262
12857 81283 351
82175 18855 351
94857 828 351
282 295 118
2857 9292 262
8575 8288 234
5858 9284 262
8284 7578 252
8575 1287 262
74 75 23
82 82 111
24 24 11
57 2 113
857 124 171
885 857 179
218 958 179
294 857 171
827 875 179
275 127 128
82 58 116
