.............
----------------------------------------------------------------------
Ran 13 tests in 0.094s

OK
Name             Stmts   Miss Branch BrPart  Cover   Missing
------------------------------------------------------------
Collatz.py          46      0     22      0   100%
TestCollatz.py      60      0      0      0   100%
------------------------------------------------------------
TOTAL              106      0     22      0   100%
